<?xml version="1.0" encoding="utf-8"?>
<!-- Generator: Adobe Illustrator 27.0.1, SVG Export Plug-In . SVG Version: 6.00 Build 0)  -->
<svg version="1.1" id="Layer_1" xmlns="http://www.w3.org/2000/svg" xmlns:xlink="http://www.w3.org/1999/xlink" x="0px" y="0px"
	 viewBox="0 0 20 20" style="enable-background:new 0 0 20 20;" xml:space="preserve">
<style type="text/css">
	.st0{clip-path:url(#SVGID_00000089550686093185960580000000039963570236789685_);}
</style>
<g>
	<defs>
		<rect id="SVGID_1_" x="1.5" y="1.5" width="17" height="17"/>
	</defs>
	<clipPath id="SVGID_00000042016508006438336040000002320440559813751475_">
		<use xlink:href="#SVGID_1_"  style="overflow:visible;"/>
	</clipPath>
	<path style="clip-path:url(#SVGID_00000042016508006438336040000002320440559813751475_);" d="M18.2,17l-4.3-4.3
		c0.9-1.2,1.5-2.6,1.5-4.2c0-3.8-3.1-6.9-6.9-6.9c-3.8,0-6.9,3.1-6.9,6.9c0,3.8,3.1,6.9,6.9,6.9c1.6,0,3.1-0.6,4.2-1.5l4.3,4.3
		c0.3,0.3,0.9,0.3,1.2,0C18.6,17.9,18.6,17.3,18.2,17 M13.6,8.4c0,2.9-2.3,5.2-5.2,5.2c-2.9,0-5.2-2.3-5.2-5.2
		c0-2.9,2.3-5.2,5.2-5.2S13.6,5.6,13.6,8.4"/>
</g>
</svg>
