<?xml version="1.0" encoding="utf-8"?>
<!-- Generator: Adobe Illustrator 27.0.1, SVG Export Plug-In . SVG Version: 6.00 Build 0)  -->
<svg version="1.1" id="Layer_1" xmlns="http://www.w3.org/2000/svg" xmlns:xlink="http://www.w3.org/1999/xlink" x="0px" y="0px"
	 viewBox="0 0 700 700" style="enable-background:new 0 0 700 700;" xml:space="preserve">
<g>
	<path d="M237.39,292.14c0-7.2,5.86-13.07,13.07-13.07c7.2,0,13.07,5.86,13.07,13.07c0,7.73,6.27,14,14,14s14-6.27,14-14
		c0-22.64-18.43-41.07-41.07-41.07s-41.07,18.43-41.07,41.07c0,7.73,6.27,14,14,14C231.12,306.14,237.39,299.87,237.39,292.14
		L237.39,292.14z M449.55,251.07c-22.64,0-41.07,18.43-41.07,41.07c0,7.73,6.27,14,14,14s14-6.27,14-14
		c0-7.2,5.86-13.07,13.07-13.07s13.07,5.86,13.07,13.07c0,7.73,6.27,14,14,14s14-6.27,14-14
		C490.61,269.5,472.19,251.07,449.55,251.07z M350,397.6c-51.44,0-99.55,27.69-125.56,72.27c-3.9,6.68-1.64,15.25,5.04,19.14
		c6.67,3.9,15.25,1.66,19.14-5.04c21.02-36.01,59.86-58.38,101.38-58.38s80.37,22.37,101.38,58.39c2.61,4.46,7.29,6.95,12.1,6.95
		c2.4,0,4.82-0.61,7.04-1.91c6.68-3.89,8.94-12.47,5.04-19.14C449.55,425.29,401.44,397.6,350,397.6L350,397.6z M466.2,96.6H233.8
		c-75.66,0-137.2,61.54-137.2,137.2v232.4c0,75.66,61.54,137.2,137.2,137.2h232.4c75.66,0,137.2-61.54,137.2-137.2V233.8
		C603.4,158.14,541.86,96.6,466.2,96.6L466.2,96.6z M575.4,466.2c0,60.21-48.99,109.2-109.2,109.2H233.8
		c-60.21,0-109.2-48.99-109.2-109.2V233.8c0-60.21,48.99-109.2,109.2-109.2h232.4c60.21,0,109.2,48.99,109.2,109.2V466.2z"/>
</g>
</svg>
