<?xml version="1.0" encoding="utf-8"?>
<!-- Generator: Adobe Illustrator 27.0.1, SVG Export Plug-In . SVG Version: 6.00 Build 0)  -->
<svg version="1.1" id="Layer_1" xmlns="http://www.w3.org/2000/svg" xmlns:xlink="http://www.w3.org/1999/xlink" x="0px" y="0px"
	 viewBox="0 0 20 20" style="enable-background:new 0 0 20 20;" xml:space="preserve">
<style type="text/css">
	.st0{clip-path:url(#SVGID_00000000911764672494756250000014043707393015011486_);fill:none;stroke:#FFFFFF;stroke-width:1.068;}
	.st1{clip-path:url(#SVGID_00000175285340598083179720000009669846689826930570_);fill:none;stroke:#FFFFFF;stroke-width:1.068;}
</style>
<g>
	<g>
		<defs>
			<rect id="SVGID_1_" x="2.2" y="1.1" width="15.6" height="17.7"/>
		</defs>
		<clipPath id="SVGID_00000144311162782098368060000015780428681624709294_">
			<use xlink:href="#SVGID_1_"  style="overflow:visible;"/>
		</clipPath>
		
			<path style="clip-path:url(#SVGID_00000144311162782098368060000015780428681624709294_);fill:none;stroke:#FFFFFF;stroke-width:1.068;" d="
			M3.9,4.2C3.2,4.3,2.7,4.9,2.8,5.7L4,17.2c0.1,0.7,0.7,1.2,1.4,1.1l6.9-0.7c0.7-0.1,1.2-0.7,1.1-1.4L12.2,4.6
			c-0.1-0.7-0.7-1.2-1.4-1.2L3.9,4.2z"/>
	</g>
	<g>
		<defs>
			<rect id="SVGID_00000146485957311501595530000000767709577476789929_" x="2.2" y="1.1" width="15.6" height="17.7"/>
		</defs>
		<clipPath id="SVGID_00000049198891344441596560000012039713069294505371_">
			<use xlink:href="#SVGID_00000146485957311501595530000000767709577476789929_"  style="overflow:visible;"/>
		</clipPath>
		
			<path style="clip-path:url(#SVGID_00000049198891344441596560000012039713069294505371_);fill:none;stroke:#FFFFFF;stroke-width:1.068;" d="
			M13.5,16.4l1.1,0.1c0.7,0.1,1.4-0.5,1.4-1.2l1.2-11.5c0.1-0.7-0.5-1.3-1.2-1.4L9.2,1.7C8.5,1.6,7.8,2.1,7.8,2.8L7.7,3.6"/>
	</g>
</g>
</svg>
