<?xml version="1.0" encoding="utf-8"?>
<!-- Generator: Adobe Illustrator 27.0.1, SVG Export Plug-In . SVG Version: 6.00 Build 0)  -->
<svg version="1.1" id="Isolation_Mode" xmlns="http://www.w3.org/2000/svg" xmlns:xlink="http://www.w3.org/1999/xlink" x="0px"
	 y="0px" viewBox="0 0 700 700" style="enable-background:new 0 0 700 700;" xml:space="preserve">
<style type="text/css">
	.st0{fill:#FFFFFF;}
</style>
<path class="st0" d="M515.76,150.36h-83.44v-16.8c0-27.44-22.4-49.84-49.84-49.84H316.4c-27.44,0-49.84,22.4-49.84,49.84v16.8
	h-83.44c-27.44,0-49.84,22.4-49.84,49.84V217c0,27.44,22.4,49.84,49.84,49.84h1.68l29.12,304.08c2.24,25.76,24.08,45.36,49.84,45.36
	h172.48c25.76,0,47.04-19.6,49.84-45.36l29.12-304.08h1.68c27.44,0,49.84-22.4,49.84-49.84v-16.8
	C565.6,172.76,543.2,150.36,515.76,150.36L515.76,150.36z M299.6,133.56c0-8.96,7.28-16.8,16.8-16.8h66.64
	c8.96,0,16.8,7.28,16.8,16.8v16.8H299.6L299.6,133.56z M451.92,567.56c-0.56,8.4-7.84,15.12-16.8,15.12H263.2
	c-8.4,0-15.68-6.72-16.8-15.12l-28.56-300.72h262.64L451.92,567.56z M532.56,216.44c0,8.96-7.28,16.8-16.8,16.8H183.12
	c-8.96,0-16.8-7.28-16.8-16.8v-16.8c0-8.96,7.28-16.8,16.8-16.8h332.64c8.96,0,16.8,7.28,16.8,16.8V216.44z"/>
</svg>
