<?xml version="1.0" encoding="utf-8"?>
<!-- Generator: Adobe Illustrator 27.0.1, SVG Export Plug-In . SVG Version: 6.00 Build 0)  -->
<svg version="1.1" id="Layer_1" xmlns="http://www.w3.org/2000/svg" xmlns:xlink="http://www.w3.org/1999/xlink" x="0px" y="0px"
	 viewBox="0 0 700 700" style="enable-background:new 0 0 700 700;" xml:space="preserve">
<path d="M505.34,187.68c-1.34,0.17-107.94,55.99-107.94,55.99H254.65c-39.68,0-72.6,33.07-72.6,72.78s32.92,72.78,72.6,72.78h17.84
	l38.84,115.47c1.46,4.45,5.98,7.71,10.67,7.7h78.72c7.14,0.06,13.02-8.12,10.67-14.87l-36.39-108.3h22.74l103.74,54.59
	c6.76,3.59,16.38-2.14,16.45-9.8V198.88C518,192.52,511.66,186.88,505.34,187.68L505.34,187.68z M495.54,217.25v198.23l-83.97-44.27
	v-109.7L495.54,217.25z M254.64,266.06h134.53v100.78H254.64c-27.12,0-50.21-23.13-50.21-50.39S227.53,266.07,254.64,266.06
	L254.64,266.06z M296.28,389.23h54.93l33.94,100.78h-54.93L296.28,389.23z"/>
</svg>
