<?xml version="1.0" encoding="utf-8"?>
<!-- Generator: Adobe Illustrator 27.0.1, SVG Export Plug-In . SVG Version: 6.00 Build 0)  -->
<svg version="1.1" id="Layer_1" xmlns="http://www.w3.org/2000/svg" xmlns:xlink="http://www.w3.org/1999/xlink" x="0px" y="0px"
	 viewBox="0 0 21.91 22.14" style="enable-background:new 0 0 21.91 22.14;" xml:space="preserve">
<style type="text/css">
	.st0{clip-path:url(#SVGID_00000128460445046678425430000009228395899114914449_);fill:none;stroke:#53BA65;stroke-width:1.5;}
</style>
<g>
	<defs>
		<rect id="SVGID_1_" y="0" width="21.91" height="22.14"/>
	</defs>
	<clipPath id="SVGID_00000035528831815706803420000005917552699839158410_">
		<use xlink:href="#SVGID_1_"  style="overflow:visible;"/>
	</clipPath>
	
		<path style="clip-path:url(#SVGID_00000035528831815706803420000005917552699839158410_);fill:none;stroke:#53BA65;stroke-width:1.5;" d="
		M4.67,9.79l5.47,5.52l9.27-10.02c1.1,1.65,1.75,3.64,1.75,5.78c0,5.7-4.57,10.32-10.21,10.32c-5.63,0-10.2-4.62-10.2-10.32
		c0-5.7,4.57-10.32,10.2-10.32c2.47,0,4.73,0.89,6.5,2.36"/>
</g>
</svg>
