<?xml version="1.0" encoding="utf-8"?>
<!-- Generator: Adobe Illustrator 27.0.1, SVG Export Plug-In . SVG Version: 6.00 Build 0)  -->
<svg version="1.1" id="Layer_1" xmlns="http://www.w3.org/2000/svg" xmlns:xlink="http://www.w3.org/1999/xlink" x="0px" y="0px"
	 viewBox="0 0 20 20" style="enable-background:new 0 0 20 20;" xml:space="preserve">
<style type="text/css">
	.st0{clip-path:url(#SVGID_00000157286757586588733950000006169548138945232545_);}
	
		.st1{clip-path:url(#SVGID_00000138534792453067698580000016150916326283626930_);fill:none;stroke:#000000;stroke-width:0.708;stroke-miterlimit:10;}
</style>
<g>
	<g>
		<defs>
			<rect id="SVGID_1_" x="3.3" y="0.3" width="13.4" height="19.5"/>
		</defs>
		<clipPath id="SVGID_00000119106226558942034070000016153378579182573488_">
			<use xlink:href="#SVGID_1_"  style="overflow:visible;"/>
		</clipPath>
		<path style="clip-path:url(#SVGID_00000119106226558942034070000016153378579182573488_);" d="M6,7.4C6.2,8,6.8,9.4,7.2,10
			c0,0,0.1,0.1,0.1,0.2c0.3,0.6,1,1.6,2.7,1.6c1.8,0,2.4-1,2.7-1.6c0-0.1,0.1-0.1,0.1-0.2c0.4-0.6,1-2,1.2-2.6
			c0.4-0.1,0.6-0.5,0.6-0.9v-1c0-0.4-0.2-0.7-0.5-0.8V4.3c0-1.1-0.4-3.6-4.1-3.6c-2.6,0-4.1,1.4-4.1,3.6v0.4
			C5.6,4.9,5.4,5.2,5.4,5.6v1C5.4,6.9,5.6,7.3,6,7.4 M6.3,5.6C6.3,5.5,6.3,5.5,6.3,5.6c0.3-0.1,0.5-0.3,0.5-0.5V4.3
			c0-1.3,0.6-2.8,3.3-2.8s3.3,1.5,3.3,2.8v0.7c0,0.2,0.2,0.4,0.4,0.4c0,0,0.1,0,0.1,0.1v1c0,0,0,0.1-0.1,0.1c-0.2,0-0.3,0.1-0.4,0.3
			c0,0-0.7,1.9-1.2,2.6c0,0.1-0.1,0.1-0.1,0.2c-0.3,0.5-0.7,1.2-2,1.2c-1.3,0-1.7-0.7-2-1.2c0-0.1-0.1-0.1-0.1-0.2
			C7.4,8.8,6.7,6.9,6.7,6.9C6.7,6.7,6.5,6.6,6.3,6.6c0,0-0.1,0-0.1-0.1V5.6z M13.7,12.9h-1.1c-0.2,0-0.4,0.2-0.4,0.4
			s0.2,0.4,0.4,0.4h1.1c0.6,0,1.1,0.2,1.4,0.6c0.2,0.2,0.4,0.6,0.3,1l-0.2,1.1c-0.4,1.6-1.2,1.8-1.8,1.8H6.6c-0.8,0-1.4-0.6-1.8-1.8
			l-0.2-1.2c-0.1-0.4,0.1-0.7,0.2-0.9c0.3-0.4,0.9-0.7,1.5-0.7h1c0.2,0,0.4-0.2,0.4-0.4s-0.2-0.4-0.4-0.4h-1c-0.8,0-1.7,0.4-2.2,1
			c-0.4,0.5-0.5,1.1-0.4,1.7L4,16.8c0,0,0,0,0,0c0.6,2.1,1.7,2.5,2.6,2.5h6.9c0.9,0,2.1-0.4,2.6-2.5l0.2-1.2
			c0.1-0.6-0.1-1.2-0.5-1.7C15.3,13.3,14.5,12.9,13.7,12.9"/>
	</g>
	<g>
		<defs>
			<rect id="SVGID_00000060715804360352324460000007985703653650453899_" x="3.3" y="0.3" width="13.4" height="19.5"/>
		</defs>
		<clipPath id="SVGID_00000075873672736322453550000002477101198948031149_">
			<use xlink:href="#SVGID_00000060715804360352324460000007985703653650453899_"  style="overflow:visible;"/>
		</clipPath>
		
			<path style="clip-path:url(#SVGID_00000075873672736322453550000002477101198948031149_);fill:none;stroke:#000000;stroke-width:0.708;stroke-miterlimit:10;" d="
			M6,7.4C6.2,8,6.8,9.4,7.2,10c0,0,0.1,0.1,0.1,0.2c0.3,0.6,1,1.6,2.7,1.6c1.8,0,2.4-1,2.7-1.6c0-0.1,0.1-0.1,0.1-0.2
			c0.4-0.6,1-2,1.2-2.6c0.4-0.1,0.6-0.5,0.6-0.9v-1c0-0.4-0.2-0.7-0.5-0.8V4.3c0-1.1-0.4-3.6-4.1-3.6c-2.6,0-4.1,1.4-4.1,3.6v0.4
			C5.6,4.9,5.4,5.2,5.4,5.6v1C5.4,6.9,5.6,7.3,6,7.4z M6.3,5.6C6.3,5.5,6.3,5.5,6.3,5.6c0.3-0.1,0.5-0.3,0.5-0.5V4.3
			c0-1.3,0.6-2.8,3.3-2.8s3.3,1.5,3.3,2.8v0.7c0,0.2,0.2,0.4,0.4,0.4c0,0,0.1,0,0.1,0.1v1c0,0,0,0.1-0.1,0.1c-0.2,0-0.3,0.1-0.4,0.3
			c0,0-0.7,1.9-1.2,2.6c0,0.1-0.1,0.1-0.1,0.2c-0.3,0.5-0.7,1.2-2,1.2c-1.3,0-1.7-0.7-2-1.2c0-0.1-0.1-0.1-0.1-0.2
			C7.4,8.8,6.7,6.9,6.7,6.9C6.7,6.7,6.5,6.6,6.3,6.6c0,0-0.1,0-0.1-0.1V5.6z M13.7,12.9h-1.1c-0.2,0-0.4,0.2-0.4,0.4
			s0.2,0.4,0.4,0.4h1.1c0.6,0,1.1,0.2,1.4,0.6c0.2,0.2,0.4,0.6,0.3,1l-0.2,1.1c-0.4,1.6-1.2,1.8-1.8,1.8H6.6c-0.8,0-1.4-0.6-1.8-1.8
			l-0.2-1.2c-0.1-0.4,0.1-0.7,0.2-0.9c0.3-0.4,0.9-0.7,1.5-0.7h1c0.2,0,0.4-0.2,0.4-0.4s-0.2-0.4-0.4-0.4h-1c-0.8,0-1.7,0.4-2.2,1
			c-0.4,0.5-0.5,1.1-0.4,1.7L4,16.8c0,0,0,0,0,0c0.6,2.1,1.7,2.5,2.6,2.5h6.9c0.9,0,2.1-0.4,2.6-2.5l0.2-1.2
			c0.1-0.6-0.1-1.2-0.5-1.7C15.3,13.3,14.5,12.9,13.7,12.9z"/>
	</g>
</g>
</svg>
